Example of PMM Aggregation
…
##   k index_input index_df_predictions  distance
## 1 1           1                   78 0.0000000
## 2 2           1                  104 0.0000000
## 3 3           1                  107 0.0000000
## 4 4           1                   93 0.0000000
## 5 5           1                   96 0.0000000
## 6 6           1                   71 0.1588866

Evaluate the model

#evaluate.pmmAggregation(model,testing_predictions= df_prediction_matrix ,k=1000,str_returnType = "m_pred"),testing_df_label = y_test)
eval <-evaluate.pmmAggregation(model,testing_predictions= predict.pmmAggregation(model,data.matrix(x_test),k=1000,str_returnType = "m_pred"),testing_df_label = y_test)
eval

## # A tibble: 141 x 3
##        k t_value t_value_perfect
##    <int>   <dbl>           <dbl>
##  1     1   -13.8           -24.4
##  2     2   -20.7           -26.1
##  3     3   -18.3           -24.5
##  4     4   -17.9           -27.9
##  5     5   -19.1           -28.7
##  6     6   -18.8           -30.3
##  7     7   -18.8           -31.3
##  8     8   -18.3           -30.8
##  9     9   -18.1           -30.5
## 10    10   -20.2           -31.7
## # ... with 131 more rows
…
